2018/201608010107/comp.vcd
$date
  Tue Jan  1 14:21:54 2019
$end
$version
  GHDL v0
$end
$timescale
  1 fs
$end
$scope module standard $end
$upscope $end
$scope module std_logic_1164 $end
$upscope $end
$scope module numeric_std $end
$upscope $end
$scope module rsisa $end
$upscope $end
$scope module comp $end
$var reg 1 ! clk $end
$var reg 1 " reset $end
$var reg 16 # addrbus[15:0] $end
$var reg 8 $ databus[7:0] $end
$var reg 1 % read $end
$var reg 1 & write $end
$scope module cpu_1 $end
$var reg 1 ' clk $end
$var reg 1 ( reset $end
$var reg 16 ) addrbus[15:0] $end
$var reg 8 * databus[7:0] $end
$var reg 1 + read $end
$var reg 1 , write $end
$var reg 16 - pc[15:0] $end
$var reg 8 . ac[7:0] $end
$var reg 8 / r[7:0] $end
$var reg 16 0 ar[15:0] $end
$var reg 8 1 ir[7:0] $end
$var reg 8 2 dr[7:0] $end
$var reg 8 3 tr[7:0] $end
$var reg 1 4 z $end
$var reg 16 5 thebus[15:0] $end
$var reg 3 6 s[2:0] $end
$var reg 8 7 aluresult[7:0] $end
$var reg 1 8 pcinc $end
$var reg 1 9 acreset $end
$var reg 1 : acinc $end
$var reg 1 ; arinc $end
$var reg 1 < write1 $end
$var reg 1 = pcbus $end
$var reg 1 > membus $end
$var reg 1 ? rbus $end
$var reg 1 @ acbus $end
$var reg 1 A trbus $end
$var reg 1 B drbus $end
$var reg 1 C pcload $end
$var reg 1 D arload $end
$var reg 1 E drload $end
$var reg 1 F irload $end
$var reg 1 G acload $end
$var reg 1 H rload $end
$var reg 1 I trload $end
$var reg 16 J nextpc[15:0] $end
$var reg 6 K state[5:0] $end
$var reg 6 L nextstate[5:0] $end
$upscope $end
$scope module mem_1 $end
$var reg 1 M clk $end
$var reg 1 N reset $end
$var reg 16 O addrbus[15:0] $end
$var reg 8 P databus[7:0] $end
$var reg 1 Q read $end
$var reg 1 R write $end
$var reg 16 S addr[15:0] $end
$var reg 8 T result[7:0] $end
$comment memdata is not handled $end
$upscope $end
$upscope $end
$enddefinitions $end
#0
0!
1"
bUUUUUUUUUUUUUUUU #
b00001011 $
0%
0&
0'
1(
bUUUUUUUUUUUUUUUU )
b00001011 *
0+
0,
bUUUUUUUUUUUUUUUU -
bUUUUUUUU .
bUUUUUUUU /
bUUUUUUUUUUUUUUUU 0
bUUUUUUUU 1
bUUUUUUUU 2
bUUUUUUUU 3
U4
bZZZZZZZZZZZZZZZZ 5
b000 6
bZZZZZZZZ 7
08
09
0:
0;
0<
0=
0>
0?
0@
0A
0B
0C
0D
0E
0F
0G
0H
0I
bUUUUUUUUUUUUUUUU J
bUUUUUU K
bUUUUUU L
0M
1N
bUUUUUUUUUUUUUUUU O
b00001011 P
0Q
0R
bUUUUUUUUUUUUUUUU S
b00000000 T
#50000000
1!
1'
b0000000000000000 -
b0000000000000000 5
b00000000 7
1=
1D
b000000 K
b000001 L
1M
#100000000
0!
0'
0M
b0000000000000000 S
#150000000
1!
b0000000000000000 #
1'
b0000000000000000 )
b0000000000000000 0
1M
b0000000000000000 O
#200000000
0!
0'
0M
#250000000
1!
1'
1M
#300000000
0!
0"
0'
0(
0M
0N
#350000000
1!
1%
1'
1+
b0000000000001011 5
b00001011 7
18
0=
1>
0D
1E
b000001 K
b000010 L
1M
1Q
#400000000
0!
0'
0M
#450000000
1!
0%
1'
0+
b0000000000000001 -
b00001011 2
bZZZZZZZZZZZZZZZZ 5
bZZZZZZZZ 7
08
0>
0E
1F
b000010 K
b000011 L
1M
0Q
#500000000
0!
0'
0M
#550000000
1!
1'
b00001011 1
b0000000000000001 5
b00000001 7
1=
1D
0F
b000011 K
b000100 L
1M
#600000000
0!
0'
0M
#650000000
1!
b0000000000000001 #
1'
b0000000000000001 )
b0000000000000001 0
bZZZZZZZZZZZZZZZZ 5
bZZZZZZZZ 7
19
0=
0D
b000100 K
b000000 L
1M
b0000000000000001 O
#700000000
0!
b00000010 $
0'
b00000010 *
0M
b00000010 P
b0000000000000001 S
#750000000
1!
1'
b00000000 .
04
b0000000000000001 5
b00000001 7
09
1=
1D
b000000 K
b000001 L
1M
#800000000
0!
0'
0M
#850000000
1!
1%
1'
1+
b0000000000000010 5
b00000010 7
18
0=
1>
0D
1E
b000001 K
b000010 L
1M
1Q
#900000000
0!
0'
0M
#950000000
1!
0%
1'
0+
b0000000000000010 -
b00000010 2
bZZZZZZZZZZZZZZZZ 5
bZZZZZZZZ 7
08
0>
0E
1F
b000010 K
b000011 L
1M
0Q
#1000000000
0!
0'
0M
#1050000000
1!
1'
b00000010 1
b0000000000000010 5
b00000010 7
1=
1D
0F
b000011 K
b010011 L
1M
#1100000000
0!
0'
0M
#1150000000
1!
b0000000000000010 #
1%
1'
b0000000000000010 )
1+
b0000000000000010 0
18
1;
0=
1>
0D
1E
b010011 K
b010100 L
1M
b0000000000000010 O
1Q
#1200000000
0!
b00011101 $
0'
b00011101 *
b0000000000011101 5
b00011101 7
0M
b00011101 P
b0000000000000010 S
#1250000000
1!
b0000000000000011 #
1'
b0000000000000011 )
b0000000000000011 -
b0000000000000011 0
b00011101 2
0;
1I
b010100 K
b010101 L
1M
b0000000000000011 O
#1300000000
0!
b00000000 $
0'
b00000000 *
b0000000000000000 5
b00000000 7
0M
b00000000 P
b0000000000000011 S
#1350000000
1!
0%
1'
0+
b0000000000000100 -
b00000000 2
b00011101 3
b0000000000011101 5
b00011101 7
08
0>
1A
1B
1D
0E
0I
b010101 K
b010110 L
1M
0Q
#1400000000
0!
0'
0M
#1450000000
1!
b0000000000011101 #
1'
b0000000000011101 )
b0000000000011101 0
b0000000000000000 5
b00000000 7
1@
0A
0B
0D
1E
b010110 K
b010111 L
1M
b0000000000011101 O
#1500000000
0!
0'
0M
b0000000000011101 S
#1550000000
1!
1&
1'
1,
1<
0@
1B
0E
b010111 K
b000000 L
1M
1R
#1600000000
0!
0'
0M
#1650000000
1!
0&
1'
0,
b0000000000000100 5
b00000100 7
0<
1=
0B
1D
b000000 K
b000001 L
1M
0R
#1700000000
0!
0'
0M
#1750000000
1!
b0000000000000100 #
1%
1'
b0000000000000100 )
1+
b0000000000000100 0
b0000000000000000 5
b00000000 7
18
0=
1>
0D
1E
b000001 K
b000010 L
1M
b0000000000000100 O
1Q
#1800000000
0!
b00000010 $
0'
b00000010 *
b0000000000000010 5
b00000010 7
0M
b00000010 P
b0000000000000100 S
#1850000000
1!
0%
1'
0+
b0000000000000101 -
b00000010 2
bZZZZZZZZZZZZZZZZ 5
bZZZZZZZZ 7
08
0>
0E
1F
b000010 K
b000011 L
1M
0Q
#1900000000
0!
0'
0M
#1950000000
1!
1'
b0000000000000101 5
b00000101 7
1=
1D
0F
b000011 K
b010011 L
1M
#2000000000
0!
0'
0M
#2050000000
1!
b0000000000000101 #
1%
1'
b0000000000000101 )
1+
b0000000000000101 0
b0000000000000010 5
b00000010 7
18
1;
0=
1>
0D
1E
b010011 K
b010100 L
1M
b0000000000000101 O
1Q
#2100000000
0!
b00011110 $
0'
b00011110 *
b0000000000011110 5
b00011110 7
0M
b00011110 P
b0000000000000101 S
#2150000000
1!
b0000000000000110 #
1'
b0000000000000110 )
b0000000000000110 -
b0000000000000110 0
b00011110 2
0;
1I
b010100 K
b010101 L
1M
b0000000000000110 O
#2200000000
0!
b00000000 $
0'
b00000000 *
b0000000000000000 5
b00000000 7
0M
b00000000 P
b0000000000000110 S
#2250000000
1!
0%
1'
0+
b0000000000000111 -
b00000000 2
b00011110 3
b0000000000011110 5
b00011110 7
08
0>
1A
1B
1D
0E
0I
b010101 K
b010110 L
1M
0Q
#2300000000
0!
0'
0M
#2350000000
1!
b0000000000011110 #
1'
b0000000000011110 )
b0000000000011110 0
b0000000000000000 5
b00000000 7
1@
0A
0B
0D
1E
b010110 K
b010111 L
1M
b0000000000011110 O
#2400000000
0!
0'
0M
b0000000000011110 S
#2450000000
1!
1&
1'
1,
1<
0@
1B
0E
b010111 K
b000000 L
1M
1R
#2500000000
0!
0'
0M
#2550000000
1!
0&
1'
0,
b0000000000000111 5
b00000111 7
0<
1=
0B
1D
b000000 K
b000001 L
1M
0R
#2600000000
0!
0'
0M
#2650000000
1!
b0000000000000111 #
1%
1'
b0000000000000111 )
1+
b0000000000000111 0
b0000000000000000 5
b00000000 7
18
0=
1>
0D
1E
b000001 K
b000010 L
1M
b0000000000000111 O
1Q
#2700000000
0!
b00000001 $
0'
b00000001 *
b0000000000000001 5
b00000001 7
0M
b00000001 P
b0000000000000111 S
#2750000000
1!
0%
1'
0+
b0000000000001000 -
b00000001 2
bZZZZZZZZZZZZZZZZ 5
bZZZZZZZZ 7
08
0>
0E
1F
b000010 K
b000011 L
1M
0Q
#2800000000
0!
0'
0M
#2850000000
1!
1'
b00000001 1
b0000000000001000 5
b00001000 7
1=
1D
0F
b000011 K
b001110 L
1M
#2900000000
0!
0'
0M
#2950000000
1!
b0000000000001000 #
1%
1'
b0000000000001000 )
1+
b0000000000001000 0
b0000000000000001 5
b00000001 7
18
1;
0=
1>
0D
1E
b001110 K
b001111 L
1M
b0000000000001000 O
1Q
#3000000000
0!
b00011110 $
0'
b00011110 *
b0000000000011110 5
b00011110 7
0M
b00011110 P
b0000000000001000 S
#3050000000
1!
b0000000000001001 #
1'
b0000000000001001 )
b0000000000001001 -
b0000000000001001 0
b00011110 2
0;
1I
b001111 K
b010000 L
1M
b0000000000001001 O
#3100000000
0!
b00000000 $
0'
b00000000 *
b0000000000000000 5
b00000000 7
0M
b00000000 P
b0000000000001001 S
#3150000000
1!
0%
1'
0+
b0000000000001010 -
b00000000 2
b0000000000011110 5
b00011110 7
08
0>
1A
1B
1D
0E
0I
b010000 K
b010001 L
1M
0Q
#3200000000
0!
0'
0M
#3250000000
1!
b0000000000011110 #
1%
1'
b0000000000011110 )
1+
b0000000000011110 0
b0000000000000000 5
b00000000 7
1>
0A
0B
0D
1E
b010001 K
b010010 L
1M
b0000000000011110 O
1Q
#3300000000
0!
0'
0M
b0000000000011110 S
#3350000000
1!
0%
1'
0+
0>
1B
0E
1G
b010010 K
b000000 L
1M
0Q
#3400000000
0!
0'
0M
#3450000000
1!
1'
b0000000000001010 5
b00001010 7
1=
0B
1D
0G
b000000 K
b000001 L
1M
#3500000000
0!
0'
0M
#3550000000
1!
b0000000000001010 #
1%
1'
b0000000000001010 )
1+
b0000000000001010 0
b0000000000000000 5
b00000000 7
18
0=
1>
0D
1E
b000001 K
b000010 L
1M
b0000000000001010 O
1Q
#3600000000
0!
b00001010 $
0'
b00001010 *
b0000000000001010 5
b00001010 7
0M
b00001010 P
b0000000000001010 S
#3650000000
1!
0%
1'
0+
b0000000000001011 -
b00001010 2
bZZZZZZZZZZZZZZZZ 5
bZZZZZZZZ 7
08
0>
0E
1F
b000010 K
b000011 L
1M
0Q
#3700000000
0!
0'
0M
#3750000000
1!
1'
b00001010 1
b0000000000001011 5
b00001011 7
1=
1D
0F
b000011 K
b000101 L
1M
#3800000000
0!
0'
0M
#3850000000
1!
b0000000000001011 #
1'
b0000000000001011 )
b0000000000001011 0
bZZZZZZZZZZZZZZZZ 5
bZZZZZZZZ 7
1:
0=
0D
b000101 K
b000000 L
1M
b0000000000001011 O
#3900000000
0!
b00000010 $
0'
b00000010 *
0M
b00000010 P
b0000000000001011 S
#3950000000
1!
1'
b00000001 .
b0000000000001011 5
b00001011 7
0:
1=
1D
b000000 K
b000001 L
1M
#4000000000
0!
0'
0M
#4050000000
1!
1%
1'
1+
b0000000000000010 5
b00000010 7
18
0=
1>
0D
1E
b000001 K
b000010 L
1M
1Q
#4100000000
0!
0'
0M
#4150000000
1!
0%
1'
0+
b0000000000001100 -
b00000010 2
bZZZZZZZZZZZZZZZZ 5
bZZZZZZZZ 7
08
0>
0E
1F
b000010 K
b000011 L
1M
0Q
#4200000000
0!
0'
0M
#4250000000
1!
1'
b00000010 1
b0000000000001100 5
b00001100 7
1=
1D
0F
b000011 K
b010011 L
1M
#4300000000
0!
0'
0M
#4350000000
1!
b0000000000001100 #
1%
1'
b0000000000001100 )
1+
b0000000000001100 0
b0000000000000010 5
b00000010 7
18
1;
0=
1>
0D
1E
b010011 K
b010100 L
1M
b0000000000001100 O
1Q
#4400000000
0!
b00011110 $
0'
b00011110 *
b0000000000011110 5
b00011110 7
0M
b00011110 P
b0000000000001100 S
#4450000000
1!
b0000000000001101 #
1'
b0000000000001101 )
b0000000000001101 -
b0000000000001101 0
b00011110 2
0;
1I
b010100 K
b010101 L
1M
b0000000000001101 O
#4500000000
0!
b00000000 $
0'
b00000000 *
b0000000000000000 5
b00000000 7
0M
b00000000 P
b0000000000001101 S
#4550000000
1!
0%
1'
0+
b0000000000001110 -
b00000000 2
b0000000000011110 5
b00011110 7
08
0>
1A
1B
1D
0E
0I
b010101 K
b010110 L
1M
0Q
#4600000000
0!
0'
0M
#4650000000
1!
b0000000000011110 #
1'
b0000000000011110 )
b0000000000011110 0
b0000000000000001 5
b00000001 7
1@
0A
0B
0D
1E
b010110 K
b010111 L
1M
b0000000000011110 O
#4700000000
0!
0'
0M
b0000000000011110 S
#4750000000
1!
b00000001 $
1&
1'
b00000001 *
1,
b00000001 2
1<
0@
1B
0E
b010111 K
b000000 L
1M
b00000001 P
1R
#4800000000
0!
0'
0M
#4850000000
1!
0&
1'
0,
b0000000000001110 5
b00001110 7
0<
1=
0B
1D
b000000 K
b000001 L
1M
0R
#4900000000
0!
0'
0M
#4950000000
1!
b0000000000001110 #
1%
1'
b0000000000001110 )
1+
b0000000000001110 0
b0000000000000001 5
b00000001 7
18
0=
1>
0D
1E
b000001 K
b000010 L
1M
b0000000000001110 O
1Q
#5000000000
0!
b00000011 $
0'
b00000011 *
b0000000000000011 5
b00000011 7
0M
b00000011 P
b0000000000001110 S
#5050000000
1!
0%
1'
0+
b0000000000001111 -
b00000011 2
bZZZZZZZZZZZZZZZZ 5
bZZZZZZZZ 7
08
0>
0E
1F
b000010 K
b000011 L
1M
0Q
#5100000000
0!
0'
0M
#5150000000
1!
1'
b00000011 1
b0000000000001111 5
b00001111 7
1=
1D
0F
b000011 K
b001100 L
1M
#5200000000
0!
0'
0M
#5250000000
1!
b0000000000001111 #
1'
b0000000000001111 )
b0000000000001111 0
b0000000000000001 5
b00000001 7
0=
1@
0D
1H
b001100 K
b000000 L
1M
b0000000000001111 O
#5300000000
0!
b00000001 $
0'
b00000001 *
0M
b00000001 P
b0000000000001111 S
#5350000000
1!
1'
b00000001 /
b0000000000001111 5
b00001111 7
1=
0@
1D
0H
b000000 K
b000001 L
1M
#5400000000
0!
0'
0M
#5450000000
1!
1%
1'
1+
b0000000000000001 5
b00000001 7
18
0=
1>
0D
1E
b000001 K
b000010 L
1M
1Q
#5500000000
0!
0'
0M
#5550000000
1!
0%
1'
0+
b0000000000010000 -
b00000001 2
bZZZZZZZZZZZZZZZZ 5
bZZZZZZZZ 7
08
0>
0E
1F
b000010 K
b000011 L
1M
0Q
#5600000000
0!
0'
0M
#5650000000
1!
1'
b00000001 1
b0000000000010000 5
b00010000 7
1=
1D
0F
b000011 K
b001110 L
1M
#5700000000
0!
0'
0M
#5750000000
1!
b0000000000010000 #
1%
1'
b0000000000010000 )
1+
b0000000000010000 0
b0000000000000001 5
b00000001 7
18
1;
0=
1>
0D
1E
b001110 K
b001111 L
1M
b0000000000010000 O
1Q
#5800000000
0!
b00011101 $
0'
b00011101 *
b0000000000011101 5
b00011101 7
0M
b00011101 P
b0000000000010000 S
#5850000000
1!
b0000000000010001 #
1'
b0000000000010001 )
b0000000000010001 -
b0000000000010001 0
b00011101 2
0;
1I
b001111 K
b010000 L
1M
b0000000000010001 O
#5900000000
0!
b00000000 $
0'
b00000000 *
b0000000000000000 5
b00000000 7
0M
b00000000 P
b0000000000010001 S
#5950000000
1!
0%
1'
0+
b0000000000010010 -
b00000000 2
b00011101 3
b0000000000011101 5
b00011101 7
08
0>
1A
1B
1D
0E
0I
b010000 K
b010001 L
1M
0Q
#6000000000
0!
0'
0M
#6050000000
1!
b0000000000011101 #
1%
1'
b0000000000011101 )
1+
b0000000000011101 0
b0000000000000000 5
b00000000 7
1>
0A
0B
0D
1E
b010001 K
b010010 L
1M
b0000000000011101 O
1Q
#6100000000
0!
0'
0M
b0000000000011101 S
#6150000000
1!
0%
1'
0+
0>
1B
0E
1G
b010010 K
b000000 L
1M
0Q
#6200000000
0!
0'
0M
#6250000000
1!
1'
b00000000 .
b0000000000010010 5
b00010010 7
1=
0B
1D
0G
b000000 K
b000001 L
1M
#6300000000
0!
0'
0M
#6350000000
1!
b0000000000010010 #
1%
1'
b0000000000010010 )
1+
b0000000000010010 0
b0000000000000000 5
b00000000 7
18
0=
1>
0D
1E
b000001 K
b000010 L
1M
b0000000000010010 O
1Q
#6400000000
0!
b00001000 $
0'
b00001000 *
b0000000000001000 5
b00001000 7
0M
b00001000 P
b0000000000010010 S
#6450000000
1!
0%
1'
0+
b0000000000010011 -
b00001000 2
bZZZZZZZZZZZZZZZZ 5
bZZZZZZZZ 7
08
0>
0E
1F
b000010 K
b000011 L
1M
0Q
#6500000000
0!
0'
0M
#6550000000
1!
1'
b00001000 1
b0000000000010011 5
b00010011 7
1=
1D
0F
b000011 K
b000110 L
1M
#6600000000
0!
0'
0M
#6650000000
1!
b0000000000010011 #
1'
b0000000000010011 )
b0000000000010011 0
b0000000000000001 5
b001 6
b00000001 7
0=
1?
0D
1G
b000110 K
b000000 L
1M
b0000000000010011 O
#6700000000
0!
b00000010 $
0'
b00000010 *
0M
b00000010 P
b0000000000010011 S
#6750000000
1!
1'
b00000001 .
b0000000000010011 5
b000 6
b00010011 7
1=
0?
1D
0G
b000000 K
b000001 L
1M
#6800000000
0!
0'
0M
#6850000000
1!
1%
1'
1+
b0000000000000010 5
b00000010 7
18
0=
1>
0D
1E
b000001 K
b000010 L
1M
1Q
#6900000000
0!
0'
0M
#6950000000
1!
0%
1'
0+
b0000000000010100 -
b00000010 2
bZZZZZZZZZZZZZZZZ 5
bZZZZZZZZ 7
08
0>
0E
1F
b000010 K
b000011 L
1M
0Q
#7000000000
0!
0'
0M
#7050000000
1!
1'
b00000010 1
b0000000000010100 5
b00010100 7
1=
1D
0F
b000011 K
b010011 L
1M
#7100000000
0!
0'
0M
#7150000000
1!
b0000000000010100 #
1%
1'
b0000000000010100 )
1+
b0000000000010100 0
b0000000000000010 5
b00000010 7
18
1;
0=
1>
0D
1E
b010011 K
b010100 L
1M
b0000000000010100 O
1Q
#7200000000
0!
b00011101 $
0'
b00011101 *
b0000000000011101 5
b00011101 7
0M
b00011101 P
b0000000000010100 S
#7250000000
1!
b0000000000010101 #
1'
b0000000000010101 )
b0000000000010101 -
b0000000000010101 0
b00011101 2
0;
1I
b010100 K
b010101 L
1M
b0000000000010101 O
#7300000000
0!
b00000000 $
0'
b00000000 *
b0000000000000000 5
b00000000 7
0M
b00000000 P
b0000000000010101 S
#7350000000
1!
0%
1'
0+
b0000000000010110 -
b00000000 2
b0000000000011101 5
b00011101 7
08
0>
1A
1B
1D
0E
0I
b010101 K
b010110 L
1M
0Q
#7400000000
0!
0'
0M
#7450000000
1!
b0000000000011101 #
1'
b0000000000011101 )
b0000000000011101 0
b0000000000000001 5
b00000001 7
1@
0A
0B
0D
1E
b010110 K
b010111 L
1M
b0000000000011101 O
#7500000000
0!
0'
0M
b0000000000011101 S
#7550000000
1!
b00000001 $
1&
1'
b00000001 *
1,
b00000001 2
1<
0@
1B
0E
b010111 K
b000000 L
1M
b00000001 P
1R
#7600000000
0!
0'
0M
b00000001 T
#7650000000
1!
0&
1'
0,
b0000000000010110 5
b00010110 7
0<
1=
0B
1D
b000000 K
b000001 L
1M
0R
#7700000000
0!
0'
0M
#7750000000
1!
b0000000000010110 #
1%
1'
b0000000000010110 )
1+
b0000000000010110 0
b0000000000000001 5
b00000001 7
18
0=
1>
0D
1E
b000001 K
b000010 L
1M
b0000000000010110 O
1Q
#7800000000
0!
0'
0M
b0000000000010110 S
#7850000000
1!
0%
1'
0+
b0000000000010111 -
bZZZZZZZZZZZZZZZZ 5
bZZZZZZZZ 7
08
0>
0E
1F
b000010 K
b000011 L
1M
0Q
#7900000000
0!
0'
0M
#7950000000
1!
1'
b00000001 1
b0000000000010111 5
b00010111 7
1=
1D
0F
b000011 K
b001110 L
1M
#8000000000
0!
0'
0M
#8050000000
1!
b0000000000010111 #
1%
1'
b0000000000010111 )
1+
b0000000000010111 0
b0000000000000001 5
b00000001 7
18
1;
0=
1>
0D
1E
b001110 K
b001111 L
1M
b0000000000010111 O
1Q
#8100000000
0!
b00011111 $
0'
b00011111 *
b0000000000011111 5
b00011111 7
0M
b00011111 P
b0000000000010111 S
#8150000000
1!
b0000000000011000 #
1'
b0000000000011000 )
b0000000000011000 -
b0000000000011000 0
b00011111 2
0;
1I
b001111 K
b010000 L
1M
b0000000000011000 O
#8200000000
0!
b00000000 $
0'
b00000000 *
b0000000000000000 5
b00000000 7
0M
b00000000 P
b0000000000011000 S
#8250000000
1!
0%
1'
0+
b0000000000011001 -
b00000000 2
b00011111 3
b0000000000011111 5
b00011111 7
08
0>
1A
1B
1D
0E
0I
b010000 K
b010001 L
1M
0Q
#8300000000
0!
0'
0M
#8350000000
1!
b0000000000011111 #
1%
1'
b0000000000011111 )
1+
b0000000000011111 0
b0000000000000000 5
b00000000 7
1>
0A
0B
0D
1E
b010001 K
b010010 L
1M
b0000000000011111 O
1Q
#8400000000
0!
b00001000 $
0'
b00001000 *
b0000000000001000 5
b00001000 7
0M
b00001000 P
b0000000000011111 S
#8450000000
1!
0%
1'
0+
b00001000 2
0>
1B
0E
1G
b010010 K
b000000 L
1M
0Q
#8500000000
0!
0'
0M
#8550000000
1!
1'
b00001000 .
b0000000000011001 5
b00011001 7
1=
0B
1D
0G
b000000 K
b000001 L
1M
#8600000000
0!
0'
0M
#8650000000
1!
b0000000000011001 #
1%
1'
b0000000000011001 )
1+
b0000000000011001 0
b0000000000001000 5
b00001000 7
18
0=
1>
0D
1E
b000001 K
b000010 L
1M
b0000000000011001 O
1Q
#8700000000
0!
b00001001 $
0'
b00001001 *
b0000000000001001 5
b00001001 7
0M
b00001001 P
b0000000000011001 S
#8750000000
1!
0%
1'
0+
b0000000000011010 -
b00001001 2
bZZZZZZZZZZZZZZZZ 5
bZZZZZZZZ 7
08
0>
0E
1F
b000010 K
b000011 L
1M
0Q
#8800000000
0!
0'
0M
#8850000000
1!
1'
b00001001 1
b0000000000011010 5
b00011010 7
1=
1D
0F
b000011 K
b000111 L
1M
#8900000000
0!
0'
0M
#8950000000
1!
b0000000000011010 #
1'
b0000000000011010 )
b0000000000011010 0
b0000000000000001 5
b010 6
b00000111 7
0=
1?
0D
1G
b000111 K
b000000 L
1M
b0000000000011010 O
#9000000000
0!
b00000111 $
0'
b00000111 *
0M
b00000111 P
b0000000000011010 S
#9050000000
1!
1'
b00000111 .
b0000000000011010 5
b000 6
b00011010 7
1=
0?
1D
0G
b000000 K
b000001 L
1M
#9100000000
0!
0'
0M
#9150000000
1!
1%
1'
1+
b0000000000000111 5
b00000111 7
18
0=
1>
0D
1E
b000001 K
b000010 L
1M
1Q
#9200000000
0!
0'
0M
#9250000000
1!
0%
1'
0+
b0000000000011011 -
b00000111 2
bZZZZZZZZZZZZZZZZ 5
bZZZZZZZZ 7
08
0>
0E
1F
b000010 K
b000011 L
1M
0Q
#9300000000
0!
0'
0M
#9350000000
1!
1'
b00000111 1
b0000000000011011 5
b00011011 7
1=
1D
0F
b000011 K
b100000 L
1M
#9400000000
0!
0'
0M
#9450000000
1!
b0000000000011011 #
1%
1'
b0000000000011011 )
1+
b0000000000011011 0
b0000000000000111 5
b00000111 7
1;
0=
1>
0D
1E
b100000 K
b100001 L
1M
b0000000000011011 O
1Q
#9500000000
0!
0'
0M
b0000000000011011 S
#9550000000
1!
b0000000000011100 #
1'
b0000000000011100 )
b0000000000011100 0
0;
1I
b100001 K
b100010 L
1M
b0000000000011100 O
#9600000000
0!
b00000000 $
0'
b00000000 *
b0000000000000000 5
b00000000 7
0M
b00000000 P
b0000000000011100 S
#9650000000
1!
0%
1'
0+
b00000000 2
b00000111 3
b0000000000000111 5
b00000111 7
0>
1A
1B
1C
0E
0I
b100010 K
b000000 L
1M
0Q
#9700000000
0!
0'
0M
#9750000000
1!
1'
b0000000000000111 -
1=
0A
0B
0C
1D
b000000 K
b000001 L
1M
#9800000000
0!
0'
0M
#9850000000
1!
b0000000000000111 #
1%
1'
b0000000000000111 )
1+
b0000000000000111 0
b0000000000000000 5
b00000000 7
18
0=
1>
0D
1E
b000001 K
b000010 L
1M
b0000000000000111 O
1Q
#9900000000
0!
b00000001 $
0'
b00000001 *
b0000000000000001 5
b00000001 7
0M
b00000001 P
b0000000000000111 S
#9950000000
1!
0%
1'
0+
b0000000000001000 -
b00000001 2
bZZZZZZZZZZZZZZZZ 5
bZZZZZZZZ 7
08
0>
0E
1F
b000010 K
b000011 L
1M
0Q
#10000000000
0!
0'
0M
#10050000000
1!
1'
b00000001 1
b0000000000001000 5
b00001000 7
1=
1D
0F
b000011 K
b001110 L
1M
#10100000000
0!
0'
0M
#10150000000
1!
b0000000000001000 #
1%
1'
b0000000000001000 )
1+
b0000000000001000 0
b0000000000000001 5
b00000001 7
18
1;
0=
1>
0D
1E
b001110 K
b001111 L
1M
b0000000000001000 O
1Q
#10200000000
0!
b00011110 $
0'
b00011110 *
b0000000000011110 5
b00011110 7
0M
b00011110 P
b0000000000001000 S
#10250000000
1!
b0000000000001001 #
1'
b0000000000001001 )
b0000000000001001 -
b0000000000001001 0
b00011110 2
0;
1I
b001111 K
b010000 L
1M
b0000000000001001 O
#10300000000
0!
b00000000 $
0'
b00000000 *
b0000000000000000 5
b00000000 7
0M
b00000000 P
b0000000000001001 S
#10350000000
1!
0%
1'
0+
b0000000000001010 -
b00000000 2
b00011110 3
b0000000000011110 5
b00011110 7
08
0>
1A
1B
1D
0E
0I
b010000 K
b010001 L
1M
0Q
#10400000000
0!
0'
0M
#10450000000
1!
b0000000000011110 #
1%
1'
b0000000000011110 )
1+
b0000000000011110 0
b0000000000000000 5
b00000000 7
1>
0A
0B
0D
1E
b010001 K
b010010 L
1M
b0000000000011110 O
1Q
#10500000000
0!
b00000001 $
0'
b00000001 *
b0000000000000001 5
b00000001 7
0M
b00000001 P
b0000000000011110 S
#10550000000
1!
0%
1'
0+
b00000001 2
0>
1B
0E
1G
b010010 K
b000000 L
1M
0Q
#10600000000
0!
0'
0M
#10650000000
1!
1'
b00000001 .
b0000000000001010 5
b00001010 7
1=
0B
1D
0G
b000000 K
b000001 L
1M
#10700000000
0!
0'
0M
#10750000000
1!
b0000000000001010 #
1%
1'
b0000000000001010 )
1+
b0000000000001010 0
b0000000000000001 5
b00000001 7
18
0=
1>
0D
1E
b000001 K
b000010 L
1M
b0000000000001010 O
1Q
#10800000000
0!
b00001010 $
0'
b00001010 *
b0000000000001010 5
b00001010 7
0M
b00001010 P
b0000000000001010 S
#10850000000
1!
0%
1'
0+
b0000000000001011 -
b00001010 2
bZZZZZZZZZZZZZZZZ 5
bZZZZZZZZ 7
08
0>
0E
1F
b000010 K
b000011 L
1M
0Q
#10900000000
0!
0'
0M
#10950000000
1!
1'
b00001010 1
b0000000000001011 5
b00001011 7
1=
1D
0F
b000011 K
b000101 L
1M
#11000000000
0!
0'
0M
#11050000000
1!
b0000000000001011 #
1'
b0000000000001011 )
b0000000000001011 0
bZZZZZZZZZZZZZZZZ 5
bZZZZZZZZ 7
1:
0=
0D
b000101 K
b000000 L
1M
b0000000000001011 O
#11100000000
0!
b00000010 $
0'
b00000010 *
0M
b00000010 P
b0000000000001011 S
#11150000000
1!
1'
b00000010 .
b0000000000001011 5
b00001011 7
0:
1=
1D
b000000 K
b000001 L
1M
#11200000000
0!
0'
0M
#11250000000
1!
1%
1'
1+
b0000000000000010 5
b00000010 7
18
0=
1>
0D
1E
b000001 K
b000010 L
1M
1Q
#11300000000
0!
0'
0M
#11350000000
1!
0%
1'
0+
b0000000000001100 -
b00000010 2
bZZZZZZZZZZZZZZZZ 5
bZZZZZZZZ 7
08
0>
0E
1F
b000010 K
b000011 L
1M
0Q
#11400000000
0!
0'
0M
#11450000000
1!
1'
b00000010 1
b0000000000001100 5
b00001100 7
1=
1D
0F
b000011 K
b010011 L
1M
#11500000000
0!
0'
0M
#11550000000
1!
b0000000000001100 #
1%
1'
b0000000000001100 )
1+
b0000000000001100 0
b0000000000000010 5
b00000010 7
18
1;
0=
1>
0D
1E
b010011 K
b010100 L
1M
b0000000000001100 O
1Q
#11600000000
0!
b00011110 $
0'
b00011110 *
b0000000000011110 5
b00011110 7
0M
b00011110 P
b0000000000001100 S
#11650000000
1!
b0000000000001101 #
1'
b0000000000001101 )
b0000000000001101 -
b0000000000001101 0
b00011110 2
0;
1I
b010100 K
b010101 L
1M
b0000000000001101 O
#11700000000
0!
b00000000 $
0'
b00000000 *
b0000000000000000 5
b00000000 7
0M
b00000000 P
b0000000000001101 S
#11750000000
1!
0%
1'
0+
b0000000000001110 -
b00000000 2
b0000000000011110 5
b00011110 7
08
0>
1A
1B
1D
0E
0I
b010101 K
b010110 L
1M
0Q
#11800000000
0!
0'
0M
#11850000000
1!
b0000000000011110 #
1'
b0000000000011110 )
b0000000000011110 0
b0000000000000010 5
b00000010 7
1@
0A
0B
0D
1E
b010110 K
b010111 L
1M
b0000000000011110 O
#11900000000
0!
b00000001 $
0'
b00000001 *
0M
b00000001 P
b0000000000011110 S
#11950000000
1!
b00000010 $
1&
1'
b00000010 *
1,
b00000010 2
1<
0@
1B
0E
b010111 K
b000000 L
1M
b00000010 P
1R
#12000000000
0!
0'
0M
