2018/circuits/cpu_test.vcd
$date
  Mon Sep 17 08:49:39 2018
$end
$version
  GHDL v0
$end
$timescale
  1 fs
$end
$var reg 1 ! clk $end
$var reg 1 " reset $end
$var reg 32 # addrbus[31:0] $end
$var reg 32 $ databus[31:0] $end
$var reg 1 % read $end
$var reg 1 & write $end
$scope module cpu_1 $end
$var reg 1 ' clk $end
$var reg 1 ( reset $end
$var reg 32 ) addrbus[31:0] $end
$var reg 32 * databus[31:0] $end
$var reg 1 + read $end
$var reg 1 , write $end
$comment regs is not handled $end
$var reg 32 - pc[31:0] $end
$upscope $end
$enddefinitions $end
#0
1!
1"
bUUUUUUUUUUUUUUUUUUUUUUUUUUUUUUUU #
bUUUUUUUUUUUUUUUUUUUUUUUUUUUUUUUU $
U%
U&
1'
1(
bUUUUUUUUUUUUUUUUUUUUUUUUUUUUUUUU )
bUUUUUUUUUUUUUUUUUUUUUUUUUUUUUUUU *
U+
U,
bUUUUUUUUUUUUUUUUUUUUUUUUUUUUUUUU -
#25000000
0!
0'
#50000000
1!
b00000000000000000000000000000000 #
1'
b00000000000000000000000000000000 )
b00000000000000000000000000000000 -
#75000000
0!
0'
#100000000
1!
1'
#125000000
0!
0'
#150000000
1!
1'
#175000000
0!
0'
#200000000
1!
1'
#225000000
0!
0'
#250000000
1!
1'
#275000000
0!
0'
#300000000
1!
1'
#325000000
0!
0'
#350000000
1!
1'
#375000000
0!
0'
#400000000
1!
1'
#425000000
0!
0'
#450000000
1!
1'
#475000000
0!
0'
#500000000
1!
0"
b00000000000000000000000000000100 #
1'
0(
b00000000000000000000000000000100 )
b00000000000000000000000000000100 -
#525000000
0!
0'
#550000000
1!
b00000000000000000000000000001000 #
1'
b00000000000000000000000000001000 )
b00000000000000000000000000001000 -
#575000000
0!
0'
#600000000
1!
b00000000000000000000000000001100 #
1'
b00000000000000000000000000001100 )
b00000000000000000000000000001100 -
#625000000
0!
0'
#650000000
1!
b00000000000000000000000000010000 #
1'
b00000000000000000000000000010000 )
b00000000000000000000000000010000 -
#675000000
0!
0'
#700000000
1!
b00000000000000000000000000010100 #
1'
b00000000000000000000000000010100 )
b00000000000000000000000000010100 -
#725000000
0!
0'
#750000000
1!
b00000000000000000000000000011000 #
1'
b00000000000000000000000000011000 )
b00000000000000000000000000011000 -
#775000000
0!
0'
#800000000
1!
b00000000000000000000000000011100 #
1'
b00000000000000000000000000011100 )
b00000000000000000000000000011100 -
#825000000
0!
0'
#850000000
1!
b00000000000000000000000000100000 #
1'
b00000000000000000000000000100000 )
b00000000000000000000000000100000 -
#875000000
0!
0'
#900000000
1!
b00000000000000000000000000100100 #
1'
b00000000000000000000000000100100 )
b00000000000000000000000000100100 -
#925000000
0!
0'
#950000000
1!
b00000000000000000000000000101000 #
1'
b00000000000000000000000000101000 )
b00000000000000000000000000101000 -
#975000000
0!
0'
#1000000000
1!
b00000000000000000000000000101100 #
1'
b00000000000000000000000000101100 )
b00000000000000000000000000101100 -
#1025000000
0!
0'
#1050000000
1!
b00000000000000000000000000110000 #
1'
b00000000000000000000000000110000 )
b00000000000000000000000000110000 -
#1075000000
0!
0'
#1100000000
1!
b00000000000000000000000000110100 #
1'
b00000000000000000000000000110100 )
b00000000000000000000000000110100 -
#1125000000
0!
0'
#1150000000
1!
b00000000000000000000000000111000 #
1'
b00000000000000000000000000111000 )
b00000000000000000000000000111000 -
#1175000000
0!
0'
#1200000000
1!
b00000000000000000000000000111100 #
1'
b00000000000000000000000000111100 )
b00000000000000000000000000111100 -
#1225000000
0!
0'
#1250000000
1!
b00000000000000000000000001000000 #
1'
b00000000000000000000000001000000 )
b00000000000000000000000001000000 -
#1275000000
0!
0'
#1300000000
1!
b00000000000000000000000001000100 #
1'
b00000000000000000000000001000100 )
b00000000000000000000000001000100 -
#1325000000
0!
0'
#1350000000
1!
b00000000000000000000000001001000 #
1'
b00000000000000000000000001001000 )
b00000000000000000000000001001000 -
#1375000000
0!
0'
#1400000000
1!
b00000000000000000000000001001100 #
1'
b00000000000000000000000001001100 )
b00000000000000000000000001001100 -
#1425000000
0!
0'
#1450000000
1!
b00000000000000000000000001010000 #
1'
b00000000000000000000000001010000 )
b00000000000000000000000001010000 -
#1475000000
0!
0'
#1500000000
1!
b00000000000000000000000001010100 #
1'
b00000000000000000000000001010100 )
b00000000000000000000000001010100 -
#1525000000
0!
0'
#1550000000
1!
b00000000000000000000000001011000 #
1'
b00000000000000000000000001011000 )
b00000000000000000000000001011000 -
#1575000000
0!
0'
#1600000000
1!
b00000000000000000000000001011100 #
1'
b00000000000000000000000001011100 )
b00000000000000000000000001011100 -
#1625000000
0!
0'
#1650000000
1!
b00000000000000000000000001100000 #
1'
b00000000000000000000000001100000 )
b00000000000000000000000001100000 -
#1675000000
0!
0'
#1700000000
1!
b00000000000000000000000001100100 #
1'
b00000000000000000000000001100100 )
b00000000000000000000000001100100 -
#1725000000
0!
0'
#1750000000
1!
b00000000000000000000000001101000 #
1'
b00000000000000000000000001101000 )
b00000000000000000000000001101000 -
#1775000000
0!
0'
#1800000000
1!
b00000000000000000000000001101100 #
1'
b00000000000000000000000001101100 )
b00000000000000000000000001101100 -
#1825000000
0!
0'
#1850000000
1!
b00000000000000000000000001110000 #
1'
b00000000000000000000000001110000 )
b00000000000000000000000001110000 -
#1875000000
0!
0'
#1900000000
1!
b00000000000000000000000001110100 #
1'
b00000000000000000000000001110100 )
b00000000000000000000000001110100 -
#1925000000
0!
0'
#1950000000
1!
b00000000000000000000000001111000 #
1'
b00000000000000000000000001111000 )
b00000000000000000000000001111000 -
#1975000000
0!
0'
#2000000000
1!
b00000000000000000000000001111100 #
1'
b00000000000000000000000001111100 )
b00000000000000000000000001111100 -
#2025000000
0!
0'
#2050000000
1!
b00000000000000000000000010000000 #
1'
b00000000000000000000000010000000 )
b00000000000000000000000010000000 -
#2075000000
0!
0'
#2100000000
1!
b00000000000000000000000010000100 #
1'
b00000000000000000000000010000100 )
b00000000000000000000000010000100 -
#2125000000
0!
0'
#2150000000
1!
b00000000000000000000000010001000 #
1'
b00000000000000000000000010001000 )
b00000000000000000000000010001000 -
#2175000000
0!
0'
#2200000000
1!
b00000000000000000000000010001100 #
1'
b00000000000000000000000010001100 )
b00000000000000000000000010001100 -
#2225000000
0!
0'
#2250000000
1!
b00000000000000000000000010010000 #
1'
b00000000000000000000000010010000 )
b00000000000000000000000010010000 -
#2275000000
0!
0'
#2300000000
1!
b00000000000000000000000010010100 #
1'
b00000000000000000000000010010100 )
b00000000000000000000000010010100 -
#2325000000
0!
0'
#2350000000
1!
b00000000000000000000000010011000 #
1'
b00000000000000000000000010011000 )
b00000000000000000000000010011000 -
#2375000000
0!
0'
#2400000000
1!
b00000000000000000000000010011100 #
1'
b00000000000000000000000010011100 )
b00000000000000000000000010011100 -
#2425000000
0!
0'
#2450000000
1!
b00000000000000000000000010100000 #
1'
b00000000000000000000000010100000 )
b00000000000000000000000010100000 -
#2475000000
0!
0'
#2500000000
1!
b00000000000000000000000010100100 #
1'
b00000000000000000000000010100100 )
b00000000000000000000000010100100 -
#2525000000
0!
0'
#2550000000
1!
b00000000000000000000000010101000 #
1'
b00000000000000000000000010101000 )
b00000000000000000000000010101000 -
#2575000000
0!
0'
#2600000000
1!
b00000000000000000000000010101100 #
1'
b00000000000000000000000010101100 )
b00000000000000000000000010101100 -
#2625000000
0!
0'
#2650000000
1!
b00000000000000000000000010110000 #
1'
b00000000000000000000000010110000 )
b00000000000000000000000010110000 -
#2675000000
0!
0'
#2700000000
1!
b00000000000000000000000010110100 #
1'
b00000000000000000000000010110100 )
b00000000000000000000000010110100 -
#2725000000
0!
0'
#2750000000
1!
b00000000000000000000000010111000 #
1'
b00000000000000000000000010111000 )
b00000000000000000000000010111000 -
#2775000000
0!
0'
#2800000000
1!
b00000000000000000000000010111100 #
1'
b00000000000000000000000010111100 )
b00000000000000000000000010111100 -
#2825000000
0!
0'
#2850000000
1!
b00000000000000000000000011000000 #
1'
b00000000000000000000000011000000 )
b00000000000000000000000011000000 -
#2875000000
0!
0'
#2900000000
1!
b00000000000000000000000011000100 #
1'
b00000000000000000000000011000100 )
b00000000000000000000000011000100 -
#2925000000
0!
0'
#2950000000
1!
b00000000000000000000000011001000 #
1'
b00000000000000000000000011001000 )
b00000000000000000000000011001000 -
#2975000000
0!
0'
#3000000000
1!
b00000000000000000000000011001100 #
1'
b00000000000000000000000011001100 )
b00000000000000000000000011001100 -
#3025000000
0!
0'
#3050000000
1!
b00000000000000000000000011010000 #
1'
b00000000000000000000000011010000 )
b00000000000000000000000011010000 -
#3075000000
0!
0'
#3100000000
1!
b00000000000000000000000011010100 #
1'
b00000000000000000000000011010100 )
b00000000000000000000000011010100 -
#3125000000
0!
0'
#3150000000
1!
b00000000000000000000000011011000 #
1'
b00000000000000000000000011011000 )
b00000000000000000000000011011000 -
#3175000000
0!
0'
#3200000000
1!
b00000000000000000000000011011100 #
1'
b00000000000000000000000011011100 )
b00000000000000000000000011011100 -
#3225000000
0!
0'
#3250000000
1!
b00000000000000000000000011100000 #
1'
b00000000000000000000000011100000 )
b00000000000000000000000011100000 -
#3275000000
0!
0'
#3300000000
1!
b00000000000000000000000011100100 #
1'
b00000000000000000000000011100100 )
b00000000000000000000000011100100 -
#3325000000
0!
0'
#3350000000
1!
b00000000000000000000000011101000 #
1'
b00000000000000000000000011101000 )
b00000000000000000000000011101000 -
#3375000000
0!
0'
#3400000000
1!
b00000000000000000000000011101100 #
1'
b00000000000000000000000011101100 )
b00000000000000000000000011101100 -
#3425000000
0!
0'
#3450000000
1!
b00000000000000000000000011110000 #
1'
b00000000000000000000000011110000 )
b00000000000000000000000011110000 -
#3475000000
0!
0'
#3500000000
1!
b00000000000000000000000011110100 #
1'
b00000000000000000000000011110100 )
b00000000000000000000000011110100 -
#3525000000
0!
0'
#3550000000
1!
b00000000000000000000000011111000 #
1'
b00000000000000000000000011111000 )
b00000000000000000000000011111000 -
#3575000000
0!
0'
#3600000000
1!
b00000000000000000000000011111100 #
1'
b00000000000000000000000011111100 )
b00000000000000000000000011111100 -
#3625000000
0!
0'
#3650000000
1!
b00000000000000000000000100000000 #
1'
b00000000000000000000000100000000 )
b00000000000000000000000100000000 -
#3675000000
0!
0'
#3700000000
1!
b00000000000000000000000100000100 #
1'
b00000000000000000000000100000100 )
b00000000000000000000000100000100 -
#3725000000
0!
0'
#3750000000
1!
b00000000000000000000000100001000 #
1'
b00000000000000000000000100001000 )
b00000000000000000000000100001000 -
#3775000000
0!
0'
#3800000000
1!
b00000000000000000000000100001100 #
1'
b00000000000000000000000100001100 )
b00000000000000000000000100001100 -
#3825000000
0!
0'
#3850000000
1!
b00000000000000000000000100010000 #
1'
b00000000000000000000000100010000 )
b00000000000000000000000100010000 -
#3875000000
0!
0'
#3900000000
1!
b00000000000000000000000100010100 #
1'
b00000000000000000000000100010100 )
b00000000000000000000000100010100 -
#3925000000
0!
0'
#3950000000
1!
b00000000000000000000000100011000 #
1'
b00000000000000000000000100011000 )
b00000000000000000000000100011000 -
#3975000000
0!
0'
#4000000000
1!
b00000000000000000000000100011100 #
1'
b00000000000000000000000100011100 )
b00000000000000000000000100011100 -
#4025000000
0!
0'
#4050000000
1!
b00000000000000000000000100100000 #
1'
b00000000000000000000000100100000 )
b00000000000000000000000100100000 -
#4075000000
0!
0'
#4100000000
1!
b00000000000000000000000100100100 #
1'
b00000000000000000000000100100100 )
b00000000000000000000000100100100 -
#4125000000
0!
0'
#4150000000
1!
b00000000000000000000000100101000 #
1'
b00000000000000000000000100101000 )
b00000000000000000000000100101000 -
#4175000000
0!
0'
#4200000000
1!
b00000000000000000000000100101100 #
1'
b00000000000000000000000100101100 )
b00000000000000000000000100101100 -
#4225000000
0!
0'
#4250000000
1!
b00000000000000000000000100110000 #
1'
b00000000000000000000000100110000 )
b00000000000000000000000100110000 -
#4275000000
0!
0'
#4300000000
1!
b00000000000000000000000100110100 #
1'
b00000000000000000000000100110100 )
b00000000000000000000000100110100 -
#4325000000
0!
0'
#4350000000
1!
b00000000000000000000000100111000 #
1'
b00000000000000000000000100111000 )
b00000000000000000000000100111000 -
#4375000000
0!
0'
#4400000000
1!
b00000000000000000000000100111100 #
1'
b00000000000000000000000100111100 )
b00000000000000000000000100111100 -
#4425000000
0!
0'
#4450000000
1!
b00000000000000000000000101000000 #
1'
b00000000000000000000000101000000 )
b00000000000000000000000101000000 -
#4475000000
0!
0'
#4500000000
1!
b00000000000000000000000101000100 #
1'
b00000000000000000000000101000100 )
b00000000000000000000000101000100 -
#4525000000
0!
0'
#4550000000
1!
b00000000000000000000000101001000 #
1'
b00000000000000000000000101001000 )
b00000000000000000000000101001000 -
#4575000000
0!
0'
#4600000000
1!
b00000000000000000000000101001100 #
1'
b00000000000000000000000101001100 )
b00000000000000000000000101001100 -
#4625000000
0!
0'
#4650000000
1!
b00000000000000000000000101010000 #
1'
b00000000000000000000000101010000 )
b00000000000000000000000101010000 -
#4675000000
0!
0'
#4700000000
1!
b00000000000000000000000101010100 #
1'
b00000000000000000000000101010100 )
b00000000000000000000000101010100 -
#4725000000
0!
0'
#4750000000
1!
b00000000000000000000000101011000 #
1'
b00000000000000000000000101011000 )
b00000000000000000000000101011000 -
#4775000000
0!
0'
#4800000000
1!
b00000000000000000000000101011100 #
1'
b00000000000000000000000101011100 )
b00000000000000000000000101011100 -
#4825000000
0!
0'
#4850000000
1!
b00000000000000000000000101100000 #
1'
b00000000000000000000000101100000 )
b00000000000000000000000101100000 -
#4875000000
0!
0'
#4900000000
1!
b00000000000000000000000101100100 #
1'
b00000000000000000000000101100100 )
b00000000000000000000000101100100 -
#4925000000
0!
0'
#4950000000
1!
b00000000000000000000000101101000 #
1'
b00000000000000000000000101101000 )
b00000000000000000000000101101000 -
